﻿{
  "actions": {},
  "skillDefinitions": {},
  "industries": {},
  "perks": {},
  "projectDefinitions": {},
  "professions": {},
  "personalities": {},
  "defaultPeople": {},
  "configuration": {},
  "lastNames": [],
  "firstNames": { }
}